0.012352628731837623, 0.030389044688631905
0.1117880412975345, 0.03278386202427308
0.2110611544956047, 0.0329714079601966
0.31031623443060585, 0.03291370151837403
0.4095893476286756, 0.033101247454297766
0.5088985273528852, 0.03377929814571412
0.6081716405509558, 0.03396684408163786
0.7074988535382349, 0.03489014715080074
0.8069703326300708, 0.03777546924193431
0.9062073793020016, 0.037472510422365435
1.00558869207849, 0.03913157062476724
1.1049339383288386, 0.040300126071676434
1.2044054174206744, 0.04318544816281
1.3039309963017187, 0.04680652738718294
1.403420508656624, 0.04993710185606326
1.5030542871160861, 0.055029695346914265
1.6026159325232703, 0.059141279326779816
1.7022497109827324, 0.06423387281763082
1.802244154703586, 0.07423151386340932
1.902148432109092, 0.08300289302045583
2.0020346762515278, 0.09152901979975603
2.102407818496843, 0.1066769607782081
2.2026186613745313, 0.11961763035694317
2.3034967349857958, 0.1416326379122934
2.3797774377701435, 0.16660510061105605
2.4436512555626164, 0.19158477661504625
2.5396883998876456, 0.20401009560917038
2.6080785482311013, 0.2341649173749527
2.672329060852139, 0.2642676430474227
2.760766186641284, 0.28582660941670235
2.8323522299398505, 0.3031986528404035
2.876209125725084, 0.33718293820380696
2.9145117764848845, 0.3518764409529056
2.9664932583917354, 0.38386119810715347
3.0054234667063575, 0.40708948360182573
3.073468979355595, 0.43255725992623295
3.121701946979046, 0.4698091725578454
3.173241012831923, 0.49577707137804916
3.2243472803711297, 0.5158589131323399
3.2401263855570166, 0.561713894465683
3.300287354853052, 0.592445780649692
3.3261831206209775, 0.6071464967040185
3.3660887280980747, 0.5873932610767733
3.407060301792173, 0.6383841157323343
3.4464209039853895, 0.6674657579758865
3.510174500024066, 0.6908104181282345
3.5515668498564557, 0.7475238282645442
3.524276511744482, 0.7138569283311653
3.6163543529777877, 0.7849296247410171
3.668596716090378, 0.8204623662933292
3.7569056053421397, 0.8402773157541903
3.783522701632849, 0.8647881269183714
3.8567473674356716, 0.904445436399959
3.9195759429515578, 0.9152098174423838
3.9756070087623883, 0.946021965959166
4.076716509249711, 0.9711843790289282
4.177747865597066, 0.9952840317951228
4.277129178373554, 0.9969430919975246
4.37746625409273, 1.011600528220484
4.463448852408516, 0.9997779209520635
4.549413417461232, 0.9877100613058967
4.623476028888022, 0.9825164815418559
4.695849524673959, 0.9543509290622387
4.765853690136059, 0.9277106540173978
4.842219509922098, 0.9200925381001774
4.890151923161057, 0.8970099613711074
4.937843892892421, 0.8706573529387526
5.010445810010576, 0.8455983305772561
5.095858557213361, 0.8260257481720503
5.180108760056929, 0.7906425624814621
5.240610357655389, 0.7697600438468816
5.28791093878828, 0.7380845504752906
5.37302860837536, 0.7144989124964426
5.446201578824049, 0.6972062154302476
5.518088176507107, 0.6624188487514785
5.603848364578368, 0.6475714621575195
5.6761016386105085, 0.6177708938262598
5.761003443359658, 0.5912494940515737
5.85857421652396, 0.5682852155282402
5.9557674933813365, 0.5401869872307494
6.053874455567574, 0.5245148794057413
6.151398342247895, 0.5009129447002673
6.248940262191284, 0.4775562623725397
6.346842847396066, 0.45910462759973936
6.444402800602528, 0.4359931976497581
6.542828350436326, 0.42465388183160246
6.6405866695365505, 0.40424022803683124
6.738958119581141, 0.3921651550854366
6.837167270258107, 0.3778828107343245
6.935484620513489, 0.3650719806496907
7.033765904242732, 0.3517706458095642
7.1322996536549494, 0.34190284425788675
7.230580937384192, 0.32860150941776023
7.329186819848688, 0.31971471737706825
7.4273959705256525, 0.30543237302595627
7.5260379195162885, 0.297036085740757
7.624463469350087, 0.2856967699226014
7.723087385077652, 0.27705523025965584
7.821855566909776, 0.2703757096186812
7.920371283058922, 0.26026265568925744
8.018634533525095, 0.2467160684713846
8.117655181040192, 0.24347008111885915
8.216228603631162, 0.2341418347982237
8.31504727859988, 0.22814902081493904
8.414049892851907, 0.22465778108466716
8.51281807468403, 0.2179782604436925
8.611586256516151, 0.21129873980271796
8.710192138980645, 0.2024119477620261
8.80881605470821, 0.19377040809908053
8.907818668960239, 0.19027916836880854
9.006595867423894, 0.18372227391670726
9.10535503262448, 0.17692012708685945
9.203654349616794, 0.16386404462447923
9.302206132292081, 0.15424149545054822
9.401479245490151, 0.15442904138647195
9.500031028165438, 0.14480649221254072
9.598510677788447, 0.13420293352762447
9.697423125725127, 0.1294854319086205
9.796137207768037, 0.12207015413440692
9.8953562211769, 0.12152194293709151
9.99425063585051, 0.11655918894034145
10.093397516207094, 0.11502996823204081
10.192201764565354, 0.10884095234655877
10.291438811237285, 0.1085379935269899
10.39047749201545, 0.10553725855221052
10.489552239319757, 0.10302702833292443
10.588933552096243, 0.10468608853532602
10.688188632031245, 0.10462838209350345
10.787119113230993, 0.10015613285224623
10.886374193165992, 0.10009842641042366
10.985611239837926, 0.09979546759085434
11.084866319772924, 0.09973776114903177
11.1839591003403, 0.09747278330749176
11.28319614701223, 0.09716982448792288
11.382343027368815, 0.09564060377962202
11.48138170814698, 0.09263986880484287
11.5805646550297, 0.09160115285203485
11.679819734964703, 0.09154344641021206
11.779110881425844, 0.0919762447238821
11.878275795045496, 0.09069227639332755
11.977188242982173, 0.08597477477432403
12.076551522495592, 0.0873885825989793
12.1756262697999, 0.08487835237969321
12.274899382997969, 0.08506589831561673
12.3741364296699, 0.08476293949604785
12.473066910869647, 0.08029069025479041
12.57228592427851, 0.079742479057475
12.671414771372024, 0.07796800597142761
12.770345252571772, 0.07349575673017039
12.869474099665286, 0.07172128364412322
12.968476713917312, 0.06823004391385146
13.067659660800032, 0.06719132796104343
13.16673440810434, 0.0646810977417569
13.265791122145576, 0.06192561514472428
13.364847836186808, 0.059170132547691434
13.463958650017254, 0.05715040708389796
13.563087497110768, 0.05537593399785057
13.661981911784377, 0.05041318000110051
13.761002559299474, 0.04716719264857505
13.860095339866845, 0.044902214807035046
13.959224186960363, 0.043127741720987656
14.05820876794932, 0.03939124961296958
14.157229415464414, 0.036145262260444344
14.256358262557928, 0.034370789174396954
14.355324810283818, 0.03038904468863257
14.454453657377329, 0.02861457160258518
14.553636604260053, 0.02757585564977716
14.652603151985936, 0.023594111164012332
14.751713965816382, 0.021574385700218857
14.850806746383757, 0.01930940785867885
14.950151992634105, 0.020477963305588043
15.049407072569107, 0.02042025686376525
15.14859001945183, 0.01938154091095723
15.247917232439107, 0.02030484398011989
15.347298545215597, 0.02196390418252192
15.4465536251506, 0.02190619774069935
15.545916904664015, 0.02332000556535463
15.645460516808129, 0.027186337167474095
15.745040195478385, 0.031543173525085955
15.8444034749918, 0.032956981349741454
15.944001186925124, 0.037559070085099844
16.043526765806167, 0.04118014930947278
16.142872012056518, 0.04234870475638175
16.242343491148354, 0.04523402684751554
16.341833003503258, 0.04836460131639564
16.441142183227466, 0.049042652007812215
16.54046939621475, 0.04996595507697488
16.639796609202026, 0.05088925814613776
16.73905168913703, 0.05083155170431519
16.83834283559817, 0.051264350017985016
16.937579882270096, 0.05096139119841614
17.03681692894203, 0.05065843237884704
17.135855609720196, 0.04765769740406789
17.235038556602916, 0.046618981451259645
17.334329703064057, 0.04705177976492991
17.433584782999056, 0.04699407332310712
17.532533297461875, 0.04276707645959621
17.6317162443446, 0.041728360506787965
17.73093525775346, 0.04118014930947278
17.830064104846972, 0.03940567622342539
17.92912081888821, 0.03665019362639277
18.028177532929444, 0.033894711029359925
18.12732441328603, 0.032365490321059065
18.226417193853404, 0.03010051247951928
18.325509974420775, 0.027835534637979054
18.424584721725083, 0.025325304418692962
18.523641435766315, 0.02256982182166012
18.622806349385968, 0.021285853491105566
18.721953229742553, 0.019756632782804706
18.796106007484692, 0.01578931490749569